test_run_dir/PWM/PWM.PWMTreadleTester1742903246/PWM.vcd
$date
2019-06-27T09:27+0000
$end
$version
0.2
$end
$comment

$end
$timescale 1ns  $end
$scope module PWM $end
 $var wire 1 ! io_out $end
 $var wire 1 " _GEN_1 $end
 $var wire 4 # counter $end
 $var wire 1 $ clock $end
 $var wire 1 % out $end
 $var wire 4 & io_fall $end
 $var wire 4 ' _GEN_0 $end
 $var wire 4 ( io_rise $end
 $var wire 1 ) reset $end
$upscope $end
$enddefinitions $end
$dumpvars
0%
0"
b0000 '
0)
b0000 (
0$
0!
b0000 &
b0000 #
$end
#0
b0001 '
1"
1)
#1
1!
1%
0"
1$
#6
0$
#11
1$
#16
0$
#21
1$
#26
0$
#31
1$
#36
0$
#41
1$
#46
0$
0)
b0100 &
b1100 (
1"
#51
b0010 '
1$
b0001 #
#56
0$
#61
b0011 '
b0010 #
1$
#66
0$
#71
1$
b0011 #
b0100 '
#76
0$
#81
1$
b0101 '
b0100 #
#86
0$
#91
b0101 #
1$
b0110 '
#96
0$
#101
1$
b0111 '
b0110 #
#106
0$
#111
b0111 #
b1000 '
1$
#116
0$
#121
b1000 #
1$
b1001 '
#126
0$
#131
b1010 '
1$
b1001 #
#136
0$
#141
b1011 '
b1010 #
1$
#146
0$
#151
b1011 #
b1100 '
1$
#156
0$
#161
0"
1$
b0001 '
b1100 #
#166
0$
#171
0%
b0010 '
1$
0!
b0001 #
#176
0$
#181
b0011 '
b0010 #
1$
#186
0$
#191
1$
b0011 #
b0100 '
#196
0$
#201
1$
b0001 '
b0100 #
1"
#206
0$
#211
1!
1%
b0010 '
1$
b0001 #
#216
0$
b1000 (
b0111 &
#221
b0011 '
b0010 #
1$
#226
0$
#231
1$
b0011 #
b0100 '
#236
0$
#241
1$
b0101 '
b0100 #
#246
0$
#251
b0101 #
1$
b0110 '
#256
0$
#261
1$
b0111 '
b0110 #
#266
0$
#271
b0111 #
b1000 '
1$
#276
0$
#281
b1000 #
0"
1$
b0001 '
#286
0$
#291
0%
b0010 '
1$
0!
b0001 #
#296
0$
#301
b0011 '
b0010 #
1$
#306
0$
#311
1$
b0011 #
b0100 '
#316
0$
#321
1$
b0101 '
b0100 #
#326
0$
#331
b0101 #
1$
b0110 '
#336
0$
#341
1$
b0111 '
b0110 #
#346
0$
#351
b0111 #
1$
b0001 '
1"
#356
0$
#361
1!
1%
b0010 '
1$
b0001 #
#366
0$
b1000 &
b0101 (
#371
b0011 '
b0010 #
1$
#376
0$
#381
1$
b0011 #
b0100 '
#386
0$
#391
1$
b0101 '
b0100 #
#396
0$
#401
b0101 #
0"
1$
b0001 '
#406
0$
#411
0%
b0010 '
1$
0!
b0001 #
#416
0$
#421
b0011 '
b0010 #
1$
#426
0$
#431
1$
b0011 #
b0100 '
#436
0$
#441
1$
b0101 '
b0100 #
#446
0$
#451
b0101 #
1$
b0110 '
#456
0$
#461
1$
b0111 '
b0110 #
#466
0$
#471
b0111 #
b1000 '
1$
#476
0$
#481
b1000 #
1$
b0001 '
1"
#486
0$
#491
1!
1%
b0010 '
1$
b0001 #
